    1  sudo apt-get update
    2  sudo apt-get install build-essential
    3  sudo apt-get install vim
    4  sudo apt-get install libncurses5-dev
    5  nm echo hai
    6  vi test.c
    7  cc test.c
    8  vi test.c
    9  cc test.c
   10  vi test.c
   11  mv test.c hello.c
   12  nm ./a.out 
   13  vi test.c
   14  vi hello.c 
   15  cc hello.c 
   16  ./a.out 
   17  nm ./a.out 
   18  man nm
   19  ls
   20  mkdir ldd
   21  mv hello.c ./ldd/
   22  ls
   23  rm a.out 
   24  cd ldd/
   25  ls
   26  nm hello.c 
   27  cc hello.c 
   28  nm hello.c 
   29  nm a.out 
   30  vi hello.c 
   31  gcc -c hello.c 
   32  ls -al
   33   
   34  whatis ldd
   35  ldd a.out 
   36  ls
   37  gcc hello.c -o hello
   38  ./hello $
   39  ./hello &
   40  jobs
   41  ./hello &
   42  echo hai
   43  vi hello
   44  vi hello.c 
   45  gcc hello.c -o hello
   46  ./hello &
   47  cd /proc/2069/
   48  cat maps
   49  cd /sys
   50  ls
   51  lspci
   52  lsusb
   53  kill -9 2069
   54  jobs
   55  ls /usr/src/
   56  cd /usr/src/
   57  cd linux-headers-4.4.0-21-generic/
   58  ls
   59  cd arch/
   60  ls
   61  cd arm
   62  ls
   63  cd plat-omap/
   64  ls
   65  cd ..
   66  ls
   67  cd mach-at91/
   68  ls
   69  cd ..
   70  ls
   71  ls
   72  cd bus
   73  cd pci
   74  cd devices/
   75  ls
   76  lspci
   77  cd 0000:00:19.0
   78  ls
   79  cat irq
   80  cd driver
   81  ls
   82  kill -l
   83  sudo fdisk -l
   84  uname -r
   85  uname -a
   86  lsblk
   87  export DISK=/dev/sdb
   88  echo $DISK
   89  ls
   90  sudo dd if=/dev/zero of=${DISK} bs=1M count=10
   91  sudo dd if=./u-boot/MLO of=${DISK} count=1 seek=1 bs=128k
   92  lsblk
   93  export DISK=/dev/sdb
   94  sudo dd if=./u-boot/MLO of=${DISK} count=1 seek=1 bs=128k
   95  cd BBB/
   96  ls
   97  sudo dd if=./u-boot/MLO of=${DISK} count=1 seek=1 bs=128k
   98  sync
   99  sudo dd if=./u-boot/u-boot.img of=${DISK} count=2 seek=1 bs=384k
  100  dmesg
  101  sudo apt-get install tftpd-hpa
  102  history
  103  history | cat >> his1_lap.txt
  104  pwd
  105  cd
  106  history | cat >> his1_lap.txt
  107  sudo apt-get install cscope
  108  mkdir BBB
  109  cd BBB/
  110  https://www.digikey.com/eewiki/display/linuxonarm/BeagleBoard#BeagleBoard-Bootloader:U-Boot
  111  wget -c https://releases.linaro.org/components/toolchain/binaries/6.4-2017.11/arm-linux-gnueabihf/gcc-linaro-6.4.1-2017.11-x86_64_arm-linux-gnueabihf.tar.xz
  112  tar xf gcc-linaro-6.4.1-2017.11-x86_64_arm-linux-gnueabihf.tar.xz
  113  echo $CC
  114  export CC=`pwd`/gcc-linaro-6.4.1-2017.11-x86_64_arm-linux-gnueabihf/bin/arm-linux-gnueabihf-
  115  echo $CC
  116  ls
  117  cd gcc-linaro-6.4.1-2017.11-x86_64_arm-linux-gnueabihf/
  118  ls
  119  cd //
  120  cd -
  121  cd ..
  122  ${CC}gcc -v
  123  cd ..
  124  ls
  125  cd ldd/
  126  ls
  127  $(CC)gcc hello.c -o helloexe
  128  ${CC}gcc hello.c -o helloexe
  129  ls
  130  file helloexe 
  131  file hello
  132  cd ~/BBB/
  133  ls
  134  git clone https://github.com/u-boot/u-boot
  135  sudo apt-get install git
  136  git clone https://github.com/u-boot/u-boot
  137  ls
  138  cd u-boot/
  139  ls
  140  git checkout v2018.03 -b tmp
  141  wget -c https://rcn-ee.com/repos/git/u-boot-patches/v2018.03/0001-am335x_evm-uEnv.txt-bootz-n-fixes.patch
  142  wget -c https://rcn-ee.com/repos/git/u-boot-patches/v2018.03/0002-U-Boot-BeagleBone-Cape-Manager.patch
  143  patch -p1 < 0001-am335x_evm-uEnv.txt-bootz-n-fixes.patch
  144  patch -p1 < 0002-U-Boot-BeagleBone-Cape-Manager.patch
  145  echo $CC
  146  ls
  147  ls -a
  148  make ARCH=arm CROSS_COMPILE=${CC} distclean
  149  ls
  150  make ARCH=arm CROSS_COMPILE=${CC} am335x_evm_defconfig
  151  ls -al
  152  vi .config 
  153  make ARCH=arm CROSS_COMPILE=${CC} menuconfig
  154  make ARCH=arm CROSS_COMPILE=${CC}
  155  ls
  156  cd ..
  157  ls
  158  git clone https://github.com/RobertCNelson/bb-kernel
  159  ls
  160  cd bb-kernel/
  161  ls
  162  git checkout origin/am33x-v4.4 -b tmp
  163  ls
  164  ./build_kernel.sh
  165  sudo apt-get install lzma lzop bison flex
  166  sudo apt-get update
  167  sudo apt-get install lzma lzop bison flex
  168  ./build_kernel.sh
  169  echo $DISK
  170  sudo picocom -b 115200 /dev/ttyUSB0
  171  sudo picocom -b 115200 /dev/ttyACM0 
  172  lsblk
  173  echo $DISK
  174  ./build_kernel.shls
  175  ls
  176  cd deploy/
  177  ls
  178  echo "hello csil" >> test.txt
  179  sudo cp test.txt /var/lib/tftpboot/
  180  ls
  181  sudo cp 4.4.138-bone22.zImage /var/lib/tftpboot/
  182  ls
  183  mkdir testDTB
  184  cp 4.4.138-bone22-dtbs.tar.gz ./testDTB/
  185  cd testDTB/
  186  ls
  187  tar -xvf 4.4.138-bone22-dtbs.tar.gz 
  188  ls
  189  sudo cp am335x-boneblack.dtb /var/lib/tftpboot/
  190  history >> ~/history.txt
  191  cat ~/history.txt 
  192  echo "***********page2************" >> ~/history.txt
  193  sudo sfdisk --version
  194  sudo mkfs.ext4 -V
  195  ls'
  196  ls
  197  cd ..
  198  ls
  199  cd ..
  200  ls
  201  cd KERNEL/
  202  cscope -R
  203  history | cat >> his2_lap
  204  pwd
  205  cd
  206  dmesg
  207  sudo apt-get install picocom 
  208  sudo picocom -b 115200 /dev/ttyACM0
  209  sudo picocom -b 115200 /dev/ttyUSB0
  210  history | cat >> his2_lap
  211  history | cat >> his3_lap
  212  cd
  213  history | cat >> his3_lap
  214  ls
  215  cd BBB/
  216  ls
  217  cd bb-kernel/
  218  ls
  219  whereis loffice 
  220  which loffice 
  221  locate loffice 
  222  cd ~
  223  vi test123.txt
  224  ls
  225  vi test123.txt
  226  ps -ef
  227  history 
  228  history 
  229  tty
  230  history
  231  history | cat >> final_port.txt
  232  ls -l
  233  tty
  234  whatis fdisk
  235  whatis sfdisk
  236  sfdisk --version
  237  whatis mkfs.ext4
  238  man mkfs.ext4
  239  man mkfs.ext4 -V
  240  mkfs.ext4 -V
  241  ifconfig
  242  mkdir practice.c
  243  cd practice.c
  244  vi fib.c
  245  gcc fib.c
  246  vi fib.c
  247  gcc fib.c
  248  ./a.out
  249  vi fib.c
  250  gcc -E fib.c
  251  gcc -S fib.c
  252  ln
  253  lm
  254  ls
  255  gcc -S fib.s
  256  ls
  257  gcc -E fib.s
  258  ls
  259  gcc -c fib.s
  260  gcc -c fib.o
  261  mkdir try.c
  262  cd try.c
  263  vi arg.c
  264  gcc arg.c
  265  vi arg.c
  266  gcc arg.c
  267  vi arg.c
  268  gcc arg.c
  269  ./a.out
  270  vi arg.c
  271  gcc arg.c
  272  vi arg.c
  273  gcc arg.c
  274  ./a.out
  275  vi arg.c
  276  gcc arg.c
  277  vi arg.c
  278  ls
  279  cd BBB/
  280  ls
  281  cd bb-kernel/
  282  ls
  283  cd ..
  284  ls
  285  cd ..
  286  ls
  287  cd CRANES/
  288  ls
  289  lsblk
  290  cd ..
  291  ls
  292  cd BBB/
  293  ls
  294  cd bb-kernel/
  295  ls
  296  cd ..
  297  ls
  298  cd u-boot/
  299  ls
  300  DRIVE=/dev/mmcblk0 
  301  sudo umount /dev/mmcblk0
  302  sudo parted -s $DRIVE mklabel msdos
  303  DRIVE=/dev/mmcblk0 
  304  sudo parted -s $DRIVE mklabel msdos
  305  mount
  306  lsblk
  307  sudo parted -s $DRIVE mklabel msdos
  308  sudo -i
  309  lsblk
  310  DRIVE=/dev/sdb
  311  sudo umount /dev/sdb1
  312  sudo parted -s $DRIVE mklabel msdos
  313  sudo parted -s $DRIVE unit cyl mkpart primary fat32 -- 0 9
  314  sudo parted -s $DRIVE set 1 boot on
  315  sudo parted -s $DRIVE unit cyl mkpart primary ext2 -- 9 -2
  316  sudo mkfs.vfat -F 16 -n boot /dev/sdb1
  317  sync
  318  mount /dev/sdb1 /media/varsity/boot
  319  sudo mount /dev/sdb1 /media/varsity/boot
  320  mkdir /media/varsity/boot
  321  sudo mkdir /media/varsity/boot
  322  sudo mount /dev/sdb1 /media/varsity/boot
  323  ls
  324  cp MLO u-boot.img /media/varsity/boot
  325  sudo cp MLO u-boot.img /media/varsity/boot
  326  sync
  327  dmesg
  328  sudo picocom -b 115200 /dev/ttyUSB0 
  329  cd BBB/
  330  ls
  331  cd bb-kernel/
  332  cd deploy/
  333  ls
  334  sudo cp 4.4.138-bone22.zImage /media/varsity/boot1
  335  pwd
  336  ls
  337  cd testDTB/
  338  ls
  339  sudo cp am335x-boneblack.dtb /media/varsity/boot1
  340  sync
  341  sudo picocom -b 115200 /dev/ttyUSB0 
  342  history >> ~/history102.txt
  343  cd /boot/
  344  ls
  345  cd grub/
  346  ls
  347  vi grub.cfg 
  348  history
  349  history >> ~/history101.txt
  350  watch dmesg
  351  cat /usr/src/`uname -r`/asm/unistd.h
  352  uname -r
  353  ls /usr/src/linux-headers-4.4.0-21-generic/
  354  ls /usr/src/linux-headers-4.4.0-21-generic/include/linux
  355  ls /usr/src/linux-headers-4.4.0-21-generic/include/linuxc
  356  cd ~/BBB/
  357  ls
  358  cd gcc-linaro-6.4.1-2017.11-x86_64_arm-linux-gnueabihf/
  359  ls
  360  ls -al
  361  cd bin/
  362  ls -l
  363  pwd
  364  export CC=/home/varsity/BBB/gcc-linaro-6.4.1-2017.11-x86_64_arm-linux-gnueabihf/bin/arm-linux-gnueabihf-
  365  ${CC}gcc --version
  366  gcc --version
  367  gcc --v
  368  gcc -v
  369  ${CC}gcc -v
  370  cd ../..
  371  ls
  372  cd u-boot/
  373  ls
  374  cd configs/
  375  ls
  376  ls -l | wc -l
  377  ls -l | less
  378  ls -l | grep "am335x"
  379  vi am335x_evm_defconfig 
  380  echo $CC
  381  cd ..
  382  ls
  383  make ARCH=arm CROSS_COMPILE=$CC distclean
  384  ls
  385  make ARCH=arm CROSS_COMPILE=$CC am335x_evm_defconfig
  386  ls -l
  387  ls -al
  388  make ARCH=arm CROSS_COMPILE=$CC menuconfig
  389  make
  390  make ARCH=arm CROSS_COMPILE=$CC menuconfig
  391  dl
  392  ls
  393  echo $CC
  394  make ARCH=arm CROSS_COMPILE=$CC
  395  make ARCH=arm CROSS_COMPILE=${CC}
  396  ls
  397  cd ..
  398  ls
  399  cd -
  400  ls
  401  cd ..
  402  cd bb-kernel/
  403  ls
  404  cd KERNEL/
  405  ls
  406  cd ..
  407  ls
  408  vi build_kernel.sh 
  409  ls
  410  cd deploy/
  411  ls
  412  cd ..
  413  ls
  414  cd KERNEL/
  415  ls -l
  416  ls
  417  cd arch/
  418  ls
  419  cd arm
  420  ls
  421  cd boot
  422  ls
  423  cd dts/
  424  ls | 
  425  ls -l am335x-boneblack*
  426  cd ~
  427  ls
  428  cd CRANES/
  429  ls
  430  cd LinuxDD_Saif/
  431  ls
  432  cd 1-ModuleProgramming/
  433  ls
  434  vi helloworld.c 
  435  ls
  436  mv Makefile gMakefile
  437  vim Makefile
  438  ls
  439  uname -r
  440  ls /lib/modules/4.4.0-21-generic/
  441  cd build
  442  ls /lib/modules/4.4.0-21-generic/build
  443  make -C /lib/modules/4.4.0-21-generic/build M=`pwd` modules
  444  cat /lib/modules/4.4.0-21-generic/build/Makefile | less
  445  make -C /lib/modules/4.4.0-21-generic/build M=`pwd` clean
  446  ls
  447  mv Makefile oldMakefile
  448  ls
  449  vm gMakefile Makefile
  450  mv gMakefile Makefile
  451  ls
  452  make
  453  ls
  454  vi Makefile 
  455  modinfo helloworld.ko
  456  cat helloworld.c 
  457  sudo insmod helloworld.ko
  458  lsmod
  459  lsmod | head -5
  460  dmesg | tail
  461  sudo rmmod helloworld 
  462  dmesg | tail
  463  ls
  464  make clean
  465  ls
  466  cd ..
  467  ls
  468  cd 2-CharacterDrivers/
  469  ls
  470  ks
  471  ls
  472  make clean
  473  ls
  474  vi dummy-char.c 
  475  make
  476  ls
  477  sudo dmesg -C
  478  dmesg
  479  cat /proc/devices | less
  480  lsmod | head
  481  ls /sys/class
  482  sudo insmod dummy-char.ko
  483  dmesg
  484  cat /proc/devices | less
  485  ls /sys/class
  486  ls /sys/class/dummy_char_class/
  487  ls /sys/class/dummy_char_class/dummy_char
  488  cat /sys/class/dummy_char_class/dummy_char/dev
  489  cat /sys/class/dummy_char_class/dummy_char/
  490  ls -l /dev/dummy_char 
  491  ls /sys/class/dummy_char_class/dummy_char/power/
  492  vim myapp.c
  493  cc myapp.c
  494  vim myapp.c
  495  cc myapp.c
  496  vim myapp.c
  497  cc myapp.c
  498  vim myapp.c
  499  cc myapp.c
  500  dmesg -C
  501  sudo dmesg -C
  502  dmesg
  503  ./a.out 
  504  ./a.out /dev/dummy_char 
  505  vi myapp.c 
  506  cc myapp.c
  507  dmesg
  508  ./a.out /dev/dummy_char 
  509  sudo ./a.out /dev/dummy_char 
  510  vi myapp.c 
  511  sudo ./a.out /dev/dummy_char 
  512  vi myapp.c 
  513  sudo ./a.out /dev/dummy_char 
  514  vi myapp.c 
  515  cc myapp.c
  516  sudo ./a.out /dev/dummy_char 
  517  ls
  518  history >> history103.txt
  519  cat history103.txt 
  520  mkdir cpra.c
  521  cd cpra.c
  522  vi pra1.c
  523  gcc pra1.c
  524  ./a.out
  525  vi pra1.c
  526  gcc pra1.c
  527  ./a.out
  528  vi pra1.c
  529  gcc pra1.c
  530  ./a.out
  531  vi pra1.c
  532  gcc pra1.c
  533  vi pra1.c
  534  gcc pra1.c
  535  vi pra1.c
  536  gcc pra1.c
  537  vi pra1.c
  538  gcc pra1.c
  539  ./a.out
  540  vi pra1.c
  541  gcc pra1.c
  542  ./a.out
  543  vi pra1.c
  544  gcc pra1.c
  545  ./a.out
  546  cd SATYA_SIVA/
  547  vi fr.c
  548  ls -l
  549  mkdir SATYA_SIVA
  550  cd SATYA_SIVA
  551  mkdir Porting
  552  cd Porting
  553  ls -l
  554  wget -c https://releases.linaro.org/components/toolchain/binaries/6.4-2018.05/arm-linux-gnueabihf/gcc-linaro-6.4.1-2018.05-x86_64_arm-linux-gnueabihf.tar.xz
  555  wget -c https://releases.linaro.org/components/toolchain/binaries/6.4-2018.05/arm-linux-gnueabihf/gcc-linaro-6.4.1-2018.05-x86_64_arm-linux-gnueabihf.tar.xz --no-check-certificate
  556  tar xf gcc-linaro-6.4.1-2018.05-x86_64_arm-linux-gnueabihf.tar.xz
  557  export CC=`pwd`/gcc-linaro-6.4.1-2018.05-x86_64_arm-linux-gnueabihf/bin/arm-linux-gnueabihf-
  558  ${CC}gcc --version
  559  U-BOOT
  560  git clone https://github.com/u-boot/u-boot
  561  ls -l
  562  cd u-boot/
  563  ls -l
  564  cd ..
  565  pwd
  566  ls -l
  567  cd u-boot/
  568  git checkout v2018.09-rc2 -b tmp
  569  wget -c https://rcn-ee.com/repos/git/u-boot-patches/v2018.09-rc2/0001-omap3_beagle-uEnv.txt-bootz-n-fixes.patch
  570  make ARCH=arm CROSS_COMPILE=${CC} distclean
  571  make ARCH=arm CROSS_COMPILE=${CC} omap3_beagle_defconfig
  572  make ARCH=arm CROSS_COMPILE=${CC} menuconfig
  573  make ARCH=arm CROSS_COMPILE=${CC} 
  574  cd ..
  575  ls -l
  576  git clone https://github.com/RobertCNelson/armv7-multiplatform
  577  ls -l
  578  cd armv7-multiplatform/
  579  git checkout origin/v4.9.x -b tmp
  580  ./build_kernel.sh
  581  sudo apt-get update
  582  sudo apt-get install libssl-dev:amd64 
  583  sudo apt-get update
  584  ./build_kernel.sh
  585  ./build_kernel.sh --no-check-certificate
  586  ./build_kernel.sh 
  587  ./build_kernel.sh --no-check-certificate
  588  ls -l
  589  cd ..
  590  ls -l
  591  make ARCH=arm CROSS_COMPILE=${CC} menuconfig
  592  cd armv7-multiplatform/
  593  make ARCH=arm CROSS_COMPILE=${CC} omap3_beagle_defconfig
  594  cd ..
  595  cd u-boot/make ARCH=arm CROSS_COMPILE=${CC} distclean
  596  make ARCH=arm CROSS_COMPILE=${CC} omap3_beagle_defconfig
  597  make ARCH=arm CROSS_COMPILE=${CC} distclean
  598  make ARCH=arm CROSS_COMPILE=${CC} omap3_beagle_defconfig
  599  make ARCH=arm CROSS_COMPILE=${CC} menuconfig
  600  make ARCH=arm CROSS_COMPILE=${CC}
  601  cd ..
  602  ls -l
  603  git clone https://github.com/RobertCNelson/armv7-multiplatform
  604  cd armv7-multiplatform/
  605  ls -l
  606  ./build_kernel.sh
  607  ls -l
  608  cd ..
  609  ls -l
  610  git clone https://github.com/RobertCNelson/bb-kernel
  611  l s-l
  612  ls -l
  613  cd bb-kernel/
  614  ls -l
  615  git checkout origin/am33x-v4.9 -b tmp
  616  ./build_kernel.sh
  617  ls -l
  618  cd ..
  619  ls -l
  620  ls -lifconfig
  621  ifconfig
  622  mkdir veena
  623  cd veena
  624  vi f1.c
  625  cc f1.c
  626  vi f1.c
  627  cc f1.c
  628  vi f1.c
  629  clear
  630  cc f1.c
  631  ./a.out
  632  vi f1.c
  633  cc f1.c
  634  ./a.out
  635  vi f1.c
  636  cc f1.c
  637  ./a.out
  638  vi f1.c
  639  cc f1.c
  640  ./a.out
  641  vi f1.c
  642  vi f2.c
  643  cc f2.c
  644  ./a.out
  645  vi f2.c
  646  cc f2.c
  647  ./a.out
  648  vi f2.c
  649  cc f2.c
  650  ./a.out
  651  vi f2.c
  652  cc f2.c
  653  ./a.out
  654  vi f2.c
  655  cc f2.c
  656  vi f2.c
  657  cc f2.c
  658  vi f2.c
  659  cc f2.c
  660  ./a.out
  661  clear
  662  vi f2.c
  663  cc f2.c
  664  ./a.out
  665  vi f2.c
  666  ls
  667  cd BBB
  668  ls
  669  cd ..
  670  ls
  671  mkdir BEL
  672  cd BEL/
  673  ls
  674  ls -al
  675  cat /proc/devices | less
  676  ls /usr/src/linux-headers-4.4.0-21-generic/include/linux
  677  cd /usr/src/linux-headers-4.4.0-21-generic/include/linux
  678  ls
  679  ls cdev.h 
  680  vim cdev.h 
  681  history > ~/BEL/history2.txt
