  161  ls
  162  git checkout origin/am33x-v4.4 -b tmp
  163  ls
  164  ./build_kernel.sh
  165  sudo apt-get install lzma lzop bison flex
  166  sudo apt-get update
  167  sudo apt-get install lzma lzop bison flex
  168  ./build_kernel.sh
  169  echo $DISK
  170  sudo picocom -b 115200 /dev/ttyUSB0
  171  sudo picocom -b 115200 /dev/ttyACM0 
  172  lsblk
  173  echo $DISK
  174  ./build_kernel.shls
  175  ls
  176  cd deploy/
  177  ls
  178  echo "hello csil" >> test.txt
  179  sudo cp test.txt /var/lib/tftpboot/
  180  ls
  181  sudo cp 4.4.138-bone22.zImage /var/lib/tftpboot/
  182  ls
  183  mkdir testDTB
  184  cp 4.4.138-bone22-dtbs.tar.gz ./testDTB/
  185  cd testDTB/
  186  ls
  187  tar -xvf 4.4.138-bone22-dtbs.tar.gz 
  188  ls
  189  sudo cp am335x-boneblack.dtb /var/lib/tftpboot/
  190  history >> ~/history.txt
  191  cat ~/history.txt 
  192  echo "***********page2************" >> ~/history.txt
  193  sudo sfdisk --version
  194  sudo mkfs.ext4 -V
  195  ls'
  196  ls
  197  cd ..
  198  ls
  199  cd ..
  200  ls
  201  cd KERNEL/
  202  cscope -R
  203  history | cat >> his2_lap
  204  pwd
  205  cd
  206  dmesg
  207  sudo apt-get install picocom 
  208  sudo picocom -b 115200 /dev/ttyACM0
  209  sudo picocom -b 115200 /dev/ttyUSB0
  210  history | cat >> his2_lap
  211  history | cat >> his3_lap
  212  cd
  213  history | cat >> his3_lap
  214  ls
  215  cd BBB/
  216  ls
  217  cd bb-kernel/
  218  ls
  219  whereis loffice 
  220  which loffice 
  221  locate loffice 
  222  cd ~
  223  vi test123.txt
  224  ls
  225  vi test123.txt
  226  ps -ef
  227  history 
  228  history 
  229  tty
  230  history
  231  history | cat >> final_port.txt
  232  ls -l
  233  tty
  234  whatis fdisk
  235  whatis sfdisk
  236  sfdisk --version
  237  whatis mkfs.ext4
  238  man mkfs.ext4
  239  man mkfs.ext4 -V
  240  mkfs.ext4 -V
  241  ifconfig
  242  mkdir practice.c
  243  cd practice.c
  244  vi fib.c
  245  gcc fib.c
  246  vi fib.c
  247  gcc fib.c
  248  ./a.out
  249  vi fib.c
  250  gcc -E fib.c
  251  gcc -S fib.c
  252  ln
  253  lm
  254  ls
  255  gcc -S fib.s
  256  ls
  257  gcc -E fib.s
  258  ls
  259  gcc -c fib.s
  260  gcc -c fib.o
  261  mkdir try.c
  262  cd try.c
  263  vi arg.c
  264  gcc arg.c
  265  vi arg.c
  266  gcc arg.c
  267  vi arg.c
  268  gcc arg.c
  269  ./a.out
  270  vi arg.c
  271  gcc arg.c
  272  vi arg.c
  273  gcc arg.c
  274  ./a.out
  275  vi arg.c
  276  gcc arg.c
  277  vi arg.c
  278  ls
  279  cd BBB/
  280  ls
  281  cd bb-kernel/
  282  ls
  283  cd ..
  284  ls
  285  cd ..
  286  ls
  287  cd CRANES/
  288  ls
  289  lsblk
  290  cd ..
  291  ls
  292  cd BBB/
  293  ls
  294  cd bb-kernel/
  295  ls
  296  cd ..
  297  ls
  298  cd u-boot/
  299  ls
  300  DRIVE=/dev/mmcblk0 
  301  sudo umount /dev/mmcblk0
  302  sudo parted -s $DRIVE mklabel msdos
  303  DRIVE=/dev/mmcblk0 
  304  sudo parted -s $DRIVE mklabel msdos
  305  mount
  306  lsblk
  307  sudo parted -s $DRIVE mklabel msdos
  308  sudo -i
  309  lsblk
  310  DRIVE=/dev/sdb
  311  sudo umount /dev/sdb1
  312  sudo parted -s $DRIVE mklabel msdos
  313  sudo parted -s $DRIVE unit cyl mkpart primary fat32 -- 0 9
  314  sudo parted -s $DRIVE set 1 boot on
  315  sudo parted -s $DRIVE unit cyl mkpart primary ext2 -- 9 -2
  316  sudo mkfs.vfat -F 16 -n boot /dev/sdb1
  317  sync
  318  mount /dev/sdb1 /media/varsity/boot
  319  sudo mount /dev/sdb1 /media/varsity/boot
  320  mkdir /media/varsity/boot
  321  sudo mkdir /media/varsity/boot
  322  sudo mount /dev/sdb1 /media/varsity/boot
  323  ls
  324  cp MLO u-boot.img /media/varsity/boot
  325  sudo cp MLO u-boot.img /media/varsity/boot
  326  sync
  327  dmesg
  328  sudo picocom -b 115200 /dev/ttyUSB0 
  329  cd BBB/
  330  ls
  331  cd bb-kernel/
  332  cd deploy/
  333  ls
  334  sudo cp 4.4.138-bone22.zImage /media/varsity/boot1
  335  pwd
  336  ls
  337  cd testDTB/
  338  ls
  339  sudo cp am335x-boneblack.dtb /media/varsity/boot1
  340  sync
  341  sudo picocom -b 115200 /dev/ttyUSB0 
  342  history >> ~/history102.txt
  343  cd /boot/
  344  ls
  345  cd grub/
  346  ls
  347  vi grub.cfg 
  348  history
  349  history >> ~/history101.txt
  350  watch dmesg
  351  cat /usr/src/`uname -r`/asm/unistd.h
  352  uname -r
  353  ls /usr/src/linux-headers-4.4.0-21-generic/
  354  ls /usr/src/linux-headers-4.4.0-21-generic/include/linux
  355  ls /usr/src/linux-headers-4.4.0-21-generic/include/linuxc
  356  cd ~/BBB/
  357  ls
  358  cd gcc-linaro-6.4.1-2017.11-x86_64_arm-linux-gnueabihf/
  359  ls
  360  ls -al
  361  cd bin/
  362  ls -l
  363  pwd
  364  export CC=/home/varsity/BBB/gcc-linaro-6.4.1-2017.11-x86_64_arm-linux-gnueabihf/bin/arm-linux-gnueabihf-
  365  ${CC}gcc --version
  366  gcc --version
  367  gcc --v
  368  gcc -v
  369  ${CC}gcc -v
  370  cd ../..
  371  ls
  372  cd u-boot/
  373  ls
  374  cd configs/
  375  ls
  376  ls -l | wc -l
  377  ls -l | less
  378  ls -l | grep "am335x"
  379  vi am335x_evm_defconfig 
  380  echo $CC
  381  cd ..
  382  ls
  383  make ARCH=arm CROSS_COMPILE=$CC distclean
  384  ls
  385  make ARCH=arm CROSS_COMPILE=$CC am335x_evm_defconfig
  386  ls -l
  387  ls -al
  388  make ARCH=arm CROSS_COMPILE=$CC menuconfig
  389  make
  390  make ARCH=arm CROSS_COMPILE=$CC menuconfig
  391  dl
  392  ls
  393  echo $CC
  394  make ARCH=arm CROSS_COMPILE=$CC
  395  make ARCH=arm CROSS_COMPILE=${CC}
  396  ls
  397  cd ..
  398  ls
  399  cd -
  400  ls
  401  cd ..
  402  cd bb-kernel/
  403  ls
  404  cd KERNEL/
  405  ls
  406  cd ..
  407  ls
  408  vi build_kernel.sh 
  409  ls
  410  cd deploy/
  411  ls
  412  cd ..
  413  ls
  414  cd KERNEL/
  415  ls -l
  416  ls
  417  cd arch/
  418  ls
  419  cd arm
  420  ls
  421  cd boot
  422  ls
  423  cd dts/
  424  ls | 
  425  ls -l am335x-boneblack*
  426  cd ~
  427  ls
  428  cd CRANES/
  429  ls
  430  cd LinuxDD_Saif/
  431  ls
  432  cd 1-ModuleProgramming/
  433  ls
  434  vi helloworld.c 
  435  ls
  436  mv Makefile gMakefile
  437  vim Makefile
  438  ls
  439  uname -r
  440  ls /lib/modules/4.4.0-21-generic/
  441  cd build
  442  ls /lib/modules/4.4.0-21-generic/build
  443  make -C /lib/modules/4.4.0-21-generic/build M=`pwd` modules
  444  cat /lib/modules/4.4.0-21-generic/build/Makefile | less
  445  make -C /lib/modules/4.4.0-21-generic/build M=`pwd` clean
  446  ls
  447  mv Makefile oldMakefile
  448  ls
  449  vm gMakefile Makefile
  450  mv gMakefile Makefile
  451  ls
  452  make
  453  ls
  454  vi Makefile 
  455  modinfo helloworld.ko
  456  cat helloworld.c 
  457  sudo insmod helloworld.ko
  458  lsmod
  459  lsmod | head -5
  460  dmesg | tail
  461  sudo rmmod helloworld 
  462  dmesg | tail
  463  ls
  464  make clean
  465  ls
  466  cd ..
  467  ls
  468  cd 2-CharacterDrivers/
  469  ls
  470  ks
  471  ls
  472  make clean
  473  ls
  474  vi dummy-char.c 
  475  make
  476  ls
  477  sudo dmesg -C
  478  dmesg
  479  cat /proc/devices | less
  480  lsmod | head
  481  ls /sys/class
  482  sudo insmod dummy-char.ko
  483  dmesg
  484  cat /proc/devices | less
  485  ls /sys/class
  486  ls /sys/class/dummy_char_class/
  487  ls /sys/class/dummy_char_class/dummy_char
  488  cat /sys/class/dummy_char_class/dummy_char/dev
  489  cat /sys/class/dummy_char_class/dummy_char/
  490  ls -l /dev/dummy_char 
  491  ls /sys/class/dummy_char_class/dummy_char/power/
  492  vim myapp.c
  493  cc myapp.c
  494  vim myapp.c
  495  cc myapp.c
  496  vim myapp.c
  497  cc myapp.c
  498  vim myapp.c
  499  cc myapp.c
  500  dmesg -C
  501  sudo dmesg -C
  502  dmesg
  503  ./a.out 
  504  ./a.out /dev/dummy_char 
  505  vi myapp.c 
  506  cc myapp.c
  507  dmesg
  508  ./a.out /dev/dummy_char 
  509  sudo ./a.out /dev/dummy_char 
  510  vi myapp.c 
  511  sudo ./a.out /dev/dummy_char 
  512  vi myapp.c 
  513  sudo ./a.out /dev/dummy_char 
  514  vi myapp.c 
  515  cc myapp.c
  516  sudo ./a.out /dev/dummy_char 
  517  ls
  518  history >> history103.txt
  519  cat history103.txt 
  520  mkdir cpra.c
  521  cd cpra.c
  522  vi pra1.c
  523  gcc pra1.c
  524  ./a.out
  525  vi pra1.c
  526  gcc pra1.c
  527  ./a.out
  528  vi pra1.c
  529  gcc pra1.c
  530  ./a.out
  531  vi pra1.c
  532  gcc pra1.c
  533  vi pra1.c
  534  gcc pra1.c
  535  vi pra1.c
  536  gcc pra1.c
  537  vi pra1.c
  538  gcc pra1.c
  539  ./a.out
  540  vi pra1.c
  541  gcc pra1.c
  542  ./a.out
  543  vi pra1.c
  544  gcc pra1.c
  545  ./a.out
  546  cd SATYA_SIVA/
  547  vi fr.c
  548  ls -l
  549  mkdir SATYA_SIVA
  550  cd SATYA_SIVA
  551  mkdir Porting
  552  cd Porting
  553  ls -l
  554  wget -c https://releases.linaro.org/components/toolchain/binaries/6.4-2018.05/arm-linux-gnueabihf/gcc-linaro-6.4.1-2018.05-x86_64_arm-linux-gnueabihf.tar.xz
  555  wget -c https://releases.linaro.org/components/toolchain/binaries/6.4-2018.05/arm-linux-gnueabihf/gcc-linaro-6.4.1-2018.05-x86_64_arm-linux-gnueabihf.tar.xz --no-check-certificate
  556  tar xf gcc-linaro-6.4.1-2018.05-x86_64_arm-linux-gnueabihf.tar.xz
  557  export CC=`pwd`/gcc-linaro-6.4.1-2018.05-x86_64_arm-linux-gnueabihf/bin/arm-linux-gnueabihf-
  558  ${CC}gcc --version
  559  U-BOOT
  560  git clone https://github.com/u-boot/u-boot
  561  ls -l
  562  cd u-boot/
  563  ls -l
  564  cd ..
  565  pwd
  566  ls -l
  567  cd u-boot/
  568  git checkout v2018.09-rc2 -b tmp
  569  wget -c https://rcn-ee.com/repos/git/u-boot-patches/v2018.09-rc2/0001-omap3_beagle-uEnv.txt-bootz-n-fixes.patch
  570  make ARCH=arm CROSS_COMPILE=${CC} distclean
  571  make ARCH=arm CROSS_COMPILE=${CC} omap3_beagle_defconfig
  572  make ARCH=arm CROSS_COMPILE=${CC} menuconfig
  573  make ARCH=arm CROSS_COMPILE=${CC} 
  574  cd ..
  575  ls -l
  576  git clone https://github.com/RobertCNelson/armv7-multiplatform
  577  ls -l
  578  cd armv7-multiplatform/
  579  git checkout origin/v4.9.x -b tmp
  580  ./build_kernel.sh
  581  sudo apt-get update
  582  sudo apt-get install libssl-dev:amd64 
  583  sudo apt-get update
  584  ./build_kernel.sh
  585  ./build_kernel.sh --no-check-certificate
  586  ./build_kernel.sh 
  587  ./build_kernel.sh --no-check-certificate
  588  ls -l
  589  cd ..
  590  ls -l
  591  make ARCH=arm CROSS_COMPILE=${CC} menuconfig
  592  cd armv7-multiplatform/
  593  make ARCH=arm CROSS_COMPILE=${CC} omap3_beagle_defconfig
  594  cd ..
  595  cd u-boot/make ARCH=arm CROSS_COMPILE=${CC} distclean
  596  make ARCH=arm CROSS_COMPILE=${CC} omap3_beagle_defconfig
  597  make ARCH=arm CROSS_COMPILE=${CC} distclean
  598  make ARCH=arm CROSS_COMPILE=${CC} omap3_beagle_defconfig
  599  make ARCH=arm CROSS_COMPILE=${CC} menuconfig
  600  make ARCH=arm CROSS_COMPILE=${CC}
  601  cd ..
  602  ls -l
  603  git clone https://github.com/RobertCNelson/armv7-multiplatform
  604  cd armv7-multiplatform/
  605  ls -l
  606  ./build_kernel.sh
  607  ls -l
  608  cd ..
  609  ls -l
  610  git clone https://github.com/RobertCNelson/bb-kernel
  611  l s-l
  612  ls -l
  613  cd bb-kernel/
  614  ls -l
  615  git checkout origin/am33x-v4.9 -b tmp
  616  ./build_kernel.sh
  617  ls -l
  618  cd ..
  619  ls -l
  620  ls -lifconfig
  621  ifconfig
  622  mkdir veena
  623  cd veena
  624  vi f1.c
  625  cc f1.c
  626  vi f1.c
  627  cc f1.c
  628  vi f1.c
  629  clear
  630  cc f1.c
  631  ./a.out
  632  vi f1.c
  633  cc f1.c
  634  ./a.out
  635  vi f1.c
  636  cc f1.c
  637  ./a.out
  638  vi f1.c
  639  cc f1.c
  640  ./a.out
  641  vi f1.c
  642  vi f2.c
  643  cc f2.c
  644  ./a.out
  645  vi f2.c
  646  cc f2.c
  647  ./a.out
  648  vi f2.c
  649  cc f2.c
  650  ./a.out
  651  vi f2.c
  652  cc f2.c
  653  ./a.out
  654  vi f2.c
  655  cc f2.c
  656  vi f2.c
  657  cc f2.c
  658  vi f2.c
  659  cc f2.c
  660  ./a.out
  661  clear
  662  vi f2.c
  663  cc f2.c
  664  ./a.out
  665  vi f2.c
  666  ls
  667  cd BBB
  668  ls
  669  cd ..
  670  ls
  671  mkdir BEL
  672  cd BEL/
  673  ls
  674  ls -al
  675  cd BEL/
  676  ls
  677  uname -r
  678  uname -a
  679  cd /dev
  680  ls'
  681  ls
  682  ls -l
  683  ls -l | less
  684  cd ~
  685  ls
  686  cd BBB/
  687  ls
  688  cd ..
  689  ls
  690  cd CRANES/
  691  ls
  692  cd LinuxDD_Saif/
  693  ls
  694  cd 2-CharacterDrivers/
  695  ls
  696  cd ../..
  697  ls
  698  cd ..
  699  ls
  700  cd BEL/
  701  ls
  702  cd Linux_DD/
  703  ls
  704  cd CharDriver/
  705  ls
  706  vi first_char_driver.c 
  707  ls
  708  vi Makefile 
  709  make
  710  ls
  711  sudo dmesg -C
  712  dmesg
  713  sudo insmod final_char_driver.ko 
  714  lsmod | head -3
  715  dmesg
  716  cat /proc/devices | less
  717  dmesg
  718  vi first_char_driver.c 
  719  dmesg
  720  vi first_char_driver.c 
  721  rmmod final_char_driver.ko
  722  sudo rmmod final_char_driver.ko
  723  lsmod | head -3
  724  vi first_char_driver.c 
  725  make
  726  ls
  727  make clean
  728  ls
  729  make
  730  ls
  731  insmod final_char_driver.ko 
  732  sudo insmod final_char_driver.ko 
  733  ls
  734  lsmod| head -3
  735  dmesg
  736  rmmod final_char_driver.ko 
  737  sudo rmmod final_char_driver.ko 
  738  lsmod| head -3
  739  vi first_char_driver.c 
  740  make clean
  741  ls
  742  make
  743  sudo insmod final_char_driver.ko 
  744  dmesg
  745  lsmod | head -3
  746  ls
  747  cd ..
  748  ls
  749  cd CharDriver/
  750  LS
  751  ls
  752  make clean
  753  ls
  754  vi Makefile 
  755  ls
  756  make
  757  ls
  758  vi first_char_driver.c 
  759  vi null.c 
  760  ls
  761  sudo dmesg -C
  762  dmesg
  763  make
  764  ls
  765  sudo insmod first_char_driver.ko 
  766  dmesg
  767  lsmod | head -3
  768  rmmod final_char_driver
  769  sudo rmmod final_char_driver
  770  cat /proc/devices 
  771  ls
  772  make clean
  773  ls
  774  vi myapp.c
  775  cc myapp.c
  776  vi myapp.c
  777  cc myapp.c
  778  vi myapp.c
  779  cc myapp.c
  780  ./a.out 
  781  sudo ./a.out 
  782  vi myapp.c
  783  sudo rmmod first_char_driver 
  784  sudo ./a.out 
  785  la
  786  vi null.c 
  787  vi Makefile 
  788  make clean
  789  ls
  790  make
  791  ls
  792  sudo dmesg -C
  793  dmesg
  794  sudo insmod null.ko 
  795  dmesg
  796  lsmod | head -3
  797  ls -l /dev/mydev*
  798  sudo ./a.out 
  799  mknod mynulldev c 244 0
  800  sudo mknod mynulldev c 244 0
  801  ls
  802  vi myapp.c 
  803  cc myapp.c 
  804  ./a.out 
  805  sudo mknod /dev/mynulldev c 244 0
  806  ./a.out 
  807  sudo ./a.out 
  808  dmesg
  809  rm mynulldev 
  810  sudo rm mynulldev 
  811  ls
  812  make clean
  813  ls
  814  dmesg
  815  lsmod | head
  816  cat /proc/devices 
  817  vi myapp.c 
  818  cat /proc/devices |less
  819  lsmod | head
  820  sudo rmmod null 
  821  lsmod | head
  822  sudo rm /dev/mynulldev 
  823  sudo rm /dev/mydev
  824  sudo rm /dev/mydev_1 
  825  ls /dev/my*
  826  vi myapp.c 
  827  cc myapp.c 
  828  dmesg -C
  829  sudo dmesg -C
  830  make
  831  ls
  832  sudo insmod null.ko 
  833  dmesg
  834  sudo mknod /dev/ourdev c 244 0
  835  ls /dev/ourdev 
  836  ./a.out 
  837  sudo ./a.out 
  838  dmesg
  839  vi myapp.c 
  840  vi first_char_driver.c 
  841  vi null.c 
  842  ls
  843  make clean
  844  ls
  845  vi myapp.c 
  846  cc myapp.c 
  847  ./a.out 
  848  sudo ./a.out 
  849  ./a.out 
  850  dmesg
  851  sudo ./a.out 
  852  dmesg
  853  vi myapp.c 
  854  cc myapp.c 
  855  sudo ./a.out 
  856  dmesg
  857  sudo rmmod null 
  858  sudo ./a.out 
  859  dmesg -C
  860  sudo dmesg -C
  861  make clean
  862  ls
  863  vi null.c 
  864  make
  865  ls
  866  sudo insmod null.ko 
  867  dmesg
  868  ls /dev/ourdev 
  869  ls -l /dev/ourdev 
  870  cc myapp.c 
  871  sudo ./a.out 
  872  dmesg
  873  vi null.c 
  874  make clean
  875  ls
  876  make
  877  vi null.c 
  878  make
  879  vi null.c 
  880  make
  881  ls
  882  dmesg -C
  883  sudo dmesg -C
  884  dmesg
  885  sudo insmod null.ko 
  886  rmmod null 
  887  sudo rmmod null 
  888  sudo insmod null.ko 
  889  lsmod | head
  890  ./a.out 
  891  sudo ./a.out 
  892  dmesg
  893  sudo rmmod null 
  894  vi null.c 
  895  vi myapp.c 
  896  cc myapp.c 
  897  vi myapp.c 
  898  cc myapp.c 
  899  vi myapp.c 
  900  cc myapp.c 
  901  vi myapp.c 
  902  cc myapp.c 
  903  vi null.c 
  904  vi myapp.c 
  905  cc myapp.c 
  906  vi null.c 
  907  make
  908  vi null.c 
  909  vi myapp.c 
  910  vi null.c 
  911  make
  912  vi null.c 
  913  make
  914  sudo dmesg -C
  915  sudo insmod null.ko 
  916  dmesg
  917  sudo ./a.out 
  918  sudo ./a.out r
  919  sudo ./a.out a
  920  vi null.c 
  921  vi myapp.c 
  922  cc myapp.c 
  923  sudo ./a.out r
  924  sudo ./a.out w
  925  vi myapp.c 
  926  vi null.c 
  927  make
  928  sudo rmmod null 
  929  dmesg
  930  sudo dmesg -C
  931  sudo insmod null.ko 
  932  sudo ./a.out 
  933  sudo ./a.out q
  934  sudo ./a.out a
  935  sudo ./a.out z
  936  ls
  937  make clean
  938  ls
  939  cat /proc/iomem 
  940  cat /proc/ioports 
  941  ls
  942  v rtc.c 
  943  vi rtc.c 
  944  cat /proc/ioports | less
  945  vi rtc.c 
  946  ls
  947  vi Makefile 
  948  sudo dmesg -C
  949  make
  950  sudo insmod rtc.ko 
  951  dmesg
  952  lspci | less
  953  ls
  954  make clean
  955  'ls
  956  ls
  957  q 
  958  ls
  959  vi video_ram.c 
  960  ls
  961  vi final_char_driver.c 
  962  vi Makefile 
  963  make
  964  ls
  965  sudo dmesg -C
  966  sudo insmod final_char_driver.ko 
  967  dmesg
  968  lsmod | head
  969  cat /proc/devices | less
  970  ls /sys/class/char/
  971  ls -l /sys/class/char/
  972  vi final_char_driver.c 
  973  ls
  974  make clean
  975  sudo rmmod final_char_driver 
  976  ls /sys/class/
  977  ls char
  978  ls -l /dev/fin*
  979  ls -l /dev/ou*
  980  ls
  981  vi led_board.c 
  982  cd ..
  983  ls
  984  cd Apps/
  985  ls
  986  vi led_ops.c 
  987  ls /usr/src/linux-headers-4.4.0-21-generic/drivers
  988  ls
  989  date
  990  #Fri Oct 26 20:28:17 IST 2018
  991  cd /sys
  992  ls
  993  cd bus/
  994  ls
  995  cd usb/
  996  cd devices/
  997  ls
  998  lsusb
  999  lsusb -v
 1000  dmesg
 1001  cd ~/BEL/
 1002  ls
 1003  cd Linux_DD/
 1004  ls
 1005  cd USBDriver/
 1006  ls
 1007  vi Makefile 
 1008  make
 1009  dmesg -C
 1010  sudo dmesg -C
 1011  ls
 1012  sudo insmod ddk_led.ko 
 1013  dmesg
 1014  vi ddk_led.c 
 1015  ls
 1016  vi ddk_led.h 
 1017  vi ddk.h 
 1018  cd ..
 1019  ls
 1020  cd Apps/
 1021  ls
 1022  vi usb_ops.c 
 1023  cc usb_ops.c 
 1024  cc usb_ops.c -o usbApp
 1025  ./usbApp 
 1026  cd /sys/class/
 1027  ls
 1028  cd ~/BEL/Linux_DD/
 1029  ls
 1030  cd USBDriver/
 1031  ls
 1032  lsmod | head
 1033  sudo rmmod ddk_led 
 1034  dmesg
 1035  ls
 1036  vi ddk_led.c 
 1037  history > ~/BEL/history3.txt
 1038  cat /proc/devices | less
 1039  ls /usr/src/linux-headers-4.4.0-21-generic/include/linux
 1040  cd /usr/src/linux-headers-4.4.0-21-generic/include/linux
 1041  ls
 1042  ls cdev.h 
 1043  vim cdev.h 
 1044  history > ~/BEL/history2.txt
 1045  vi fs.h 
 1046  gedit fs.h 
 1047  cd /dev
 1048  ls
 1049  man mknod
 1050  sudo mknod mydev 243 0
 1051  sudo mknod mydev c 243 0 
 1052  ls -l mydev 
 1053  sudo mknod mydev_1 c 243 1
 1054  ls -l mydev*
 1055  gedit fs.h 
 1056  ls fs.h
 1057  cd -
 1058  gedit fs.h 
 1059  cd /sys/class/char/
 1060  ls
 1061  cd finalchar0
 1062  ls
 1063  cat dev 
 1064  ls
 1065  cat uevent 
 1066  ls -l /dev/finalchar0 
 1067  ps -ef | grep udevd
 1068  history > ~/BEL/history1.txt
 1069  date
 1070  #Sat Oct 27 08:40:10 IST 2018
 1071  ls
 1072  cd BEL/
 1073  ls
 1074  cd Linux_DD/
 1075  ls
 1076  cd USBDriver/
 1077  LS
 1078  ls
 1079  vi ddk_led.c 
 1080  cd ..
 1081  ls
 1082  cd Apps/
 1083  ls
 1084  ls -l
 1085  cd ..
 1086  cd USBDriver/
 1087  ls
 1088  vi ddk_led.h 
 1089  vi ddk_led.c 
 1090  ls
 1091  make
 1092  ls
 1093  sudo insmod ddk_led.ko 
 1094  lsmod | head -3
 1095  dmesg | tail -5
 1096  ls /sys/class/usb
 1097  #ls: cannot access '/sys/class/usb': No such file or directory
 1098  sudo rmmod ddk_led 
 1099  lsmod | head -3
 1100  uname -r
 1101  ifconfig
 1102  cd .
 1103  cd ..
 1104  ls
 1105  cd NetworkDriver/
 1106  ls
 1107  vi snull.c 
 1108  gedit snull.c 
 1109  ls
 1110  ifconfig
 1111  sudo dmesg -c
 1112  sudo dmesg -C
 1113  ls
 1114  make
 1115  ls
 1116  sudo insmod snull.ko 
 1117  dmesg
 1118  ifconfig | less
 1119  cat /etc/networks 
 1120  sudo vim /etc/networks 
 1121  sudo vim /etc/hosts
 1122  sudo vim /etc/networks 
 1123  sudo vim /etc/hosts
 1124  sudo ifconfig sn0 local0
 1125  sudo ifconfig sn1 local1
 1126  sudo tcpdump -i sn0
 1127  sudo tcpdump -i sn1
 1128  vi snull.c 
 1129  gedit snull.c 
 1130  vi snull.c 
 1131  ls
 1132  make clean
 1133  lspci
 1134  lspci -x 00:19.0
 1135  lspci -x -s 00:19.0
 1136  cd /usr/src/linux-headers-4.4.0-21-generic/net/ethernet/
 1137  ls
 1138  find / -name "eth.c"
 1139  sudo find / -name "eth.c"
 1140  cd ../../drivers/net/
 1141  ls
 1142  find ./ -name "loopback*"
 1143  cd -
 1144  cd ~
 1145  ls
 1146  cat /proc/interrupts 
 1147  ls
 1148  cd BEL/Linux_DD/
 1149  ls
 1150  cd cd KernelHelpers/
 1151  cd KernelHelpers/
 1152  ls
 1153  vi interrupts.c 
 1154  vim Makefile 
 1155  make
 1156  ls
 1157  sudo insmod interrupts.ko 
 1158  cat /proc/interrupts | less
 1159  ls -l /dev/Emb0 
 1160  history >> ~/BEL/history4.txt
