    1  sudo apt-get update
    2  sudo apt-get install build-essential
    3  sudo apt-get install vim
    4  sudo apt-get install libncurses5-dev
    5  nm echo hai
    6  vi test.c
    7  cc test.c
    8  vi test.c
    9  cc test.c
   10  vi test.c
   11  mv test.c hello.c
   12  nm ./a.out 
   13  vi test.c
   14  vi hello.c 
   15  cc hello.c 
   16  ./a.out 
   17  nm ./a.out 
   18  man nm
   19  ls
   20  mkdir ldd
   21  mv hello.c ./ldd/
   22  ls
   23  rm a.out 
   24  cd ldd/
   25  ls
   26  nm hello.c 
   27  cc hello.c 
   28  nm hello.c 
   29  nm a.out 
   30  vi hello.c 
   31  gcc -c hello.c 
   32  ls -al
   33   
   34  whatis ldd
   35  ldd a.out 
   36  ls
   37  gcc hello.c -o hello
   38  ./hello $
   39  ./hello &
   40  jobs
   41  ./hello &
   42  echo hai
   43  vi hello
   44  vi hello.c 
   45  gcc hello.c -o hello
   46  ./hello &
   47  cd /proc/2069/
   48  cat maps
   49  cd /sys
   50  ls
   51  lspci
   52  lsusb
   53  kill -9 2069
   54  jobs
   55  ls /usr/src/
   56  cd /usr/src/
   57  cd linux-headers-4.4.0-21-generic/
   58  ls
   59  cd arch/
   60  ls
   61  cd arm
   62  ls
   63  cd plat-omap/
   64  ls
   65  cd ..
   66  ls
   67  cd mach-at91/
   68  ls
   69  cd ..
   70  ls
   71  ls
   72  cd bus
   73  cd pci
   74  cd devices/
   75  ls
   76  lspci
   77  cd 0000:00:19.0
   78  ls
   79  cat irq
   80  cd driver
   81  ls
   82  kill -l
   83  sudo fdisk -l
   84  uname -r
   85  uname -a
   86  lsblk
   87  export DISK=/dev/sdb
   88  echo $DISK
   89  ls
   90  sudo dd if=/dev/zero of=${DISK} bs=1M count=10
   91  sudo dd if=./u-boot/MLO of=${DISK} count=1 seek=1 bs=128k
   92  lsblk
   93  export DISK=/dev/sdb
   94  sudo dd if=./u-boot/MLO of=${DISK} count=1 seek=1 bs=128k
   95  cd BBB/
   96  ls
   97  sudo dd if=./u-boot/MLO of=${DISK} count=1 seek=1 bs=128k
   98  sync
   99  sudo dd if=./u-boot/u-boot.img of=${DISK} count=2 seek=1 bs=384k
  100  dmesg
  101  sudo apt-get install tftpd-hpa
  102  history
  103  history | cat >> his1_lap.txt
  104  pwd
  105  cd
  106  history | cat >> his1_lap.txt
