    1  sudo apt-get update
    2  sudo apt-get install build-essential
    3  sudo apt-get install vim
    4  sudo apt-get install libncurses5-dev
    5  nm echo hai
    6  vi test.c
    7  cc test.c
    8  vi test.c
    9  cc test.c
   10  vi test.c
   11  mv test.c hello.c
   12  nm ./a.out 
   13  vi test.c
   14  vi hello.c 
   15  cc hello.c 
   16  ./a.out 
   17  nm ./a.out 
   18  man nm
   19  ls
   20  mkdir ldd
   21  mv hello.c ./ldd/
   22  ls
   23  rm a.out 
   24  cd ldd/
   25  ls
   26  nm hello.c 
   27  cc hello.c 
   28  nm hello.c 
   29  nm a.out 
   30  vi hello.c 
   31  gcc -c hello.c 
   32  ls -al
   33   
   34  whatis ldd
   35  ldd a.out 
   36  ls
   37  gcc hello.c -o hello
   38  ./hello $
   39  ./hello &
   40  jobs
   41  ./hello &
   42  echo hai
   43  vi hello
   44  vi hello.c 
   45  gcc hello.c -o hello
   46  ./hello &
   47  cd /proc/2069/
   48  cat maps
   49  cd /sys
   50  ls
   51  lspci
   52  lsusb
   53  kill -9 2069
   54  jobs
   55  ls /usr/src/
   56  cd /usr/src/
   57  cd linux-headers-4.4.0-21-generic/
   58  ls
   59  cd arch/
   60  ls
   61  cd arm
   62  ls
   63  cd plat-omap/
   64  ls
   65  cd ..
   66  ls
   67  cd mach-at91/
   68  ls
   69  cd ..
   70  ls
   71  ls
   72  cd bus
   73  cd pci
   74  cd devices/
   75  ls
   76  lspci
   77  cd 0000:00:19.0
   78  ls
   79  cat irq
   80  cd driver
   81  ls
   82  kill -l
   83  sudo fdisk -l
   84  uname -r
   85  uname -a
   86  lsblk
   87  export DISK=/dev/sdb
   88  echo $DISK
   89  ls
   90  sudo dd if=/dev/zero of=${DISK} bs=1M count=10
   91  sudo dd if=./u-boot/MLO of=${DISK} count=1 seek=1 bs=128k
   92  lsblk
   93  export DISK=/dev/sdb
   94  sudo dd if=./u-boot/MLO of=${DISK} count=1 seek=1 bs=128k
   95  cd BBB/
   96  ls
   97  sudo dd if=./u-boot/MLO of=${DISK} count=1 seek=1 bs=128k
   98  sync
   99  sudo dd if=./u-boot/u-boot.img of=${DISK} count=2 seek=1 bs=384k
  100  dmesg
  101  sudo apt-get install tftpd-hpa
  102  history
  103  history | cat >> his1_lap.txt
  104  pwd
  105  cd
  106  history | cat >> his1_lap.txt
  107  sudo apt-get install cscope
  108  mkdir BBB
  109  cd BBB/
  110  https://www.digikey.com/eewiki/display/linuxonarm/BeagleBoard#BeagleBoard-Bootloader:U-Boot
  111  wget -c https://releases.linaro.org/components/toolchain/binaries/6.4-2017.11/arm-linux-gnueabihf/gcc-linaro-6.4.1-2017.11-x86_64_arm-linux-gnueabihf.tar.xz
  112  tar xf gcc-linaro-6.4.1-2017.11-x86_64_arm-linux-gnueabihf.tar.xz
  113  echo $CC
  114  export CC=`pwd`/gcc-linaro-6.4.1-2017.11-x86_64_arm-linux-gnueabihf/bin/arm-linux-gnueabihf-
  115  echo $CC
  116  ls
  117  cd gcc-linaro-6.4.1-2017.11-x86_64_arm-linux-gnueabihf/
  118  ls
  119  cd //
  120  cd -
  121  cd ..
  122  ${CC}gcc -v
  123  cd ..
  124  ls
  125  cd ldd/
  126  ls
  127  $(CC)gcc hello.c -o helloexe
  128  ${CC}gcc hello.c -o helloexe
  129  ls
  130  file helloexe 
  131  file hello
  132  cd ~/BBB/
  133  ls
  134  git clone https://github.com/u-boot/u-boot
  135  sudo apt-get install git
  136  git clone https://github.com/u-boot/u-boot
  137  ls
  138  cd u-boot/
  139  ls
  140  git checkout v2018.03 -b tmp
  141  wget -c https://rcn-ee.com/repos/git/u-boot-patches/v2018.03/0001-am335x_evm-uEnv.txt-bootz-n-fixes.patch
  142  wget -c https://rcn-ee.com/repos/git/u-boot-patches/v2018.03/0002-U-Boot-BeagleBone-Cape-Manager.patch
  143  patch -p1 < 0001-am335x_evm-uEnv.txt-bootz-n-fixes.patch
  144  patch -p1 < 0002-U-Boot-BeagleBone-Cape-Manager.patch
  145  echo $CC
  146  ls
  147  ls -a
  148  make ARCH=arm CROSS_COMPILE=${CC} distclean
  149  ls
  150  make ARCH=arm CROSS_COMPILE=${CC} am335x_evm_defconfig
  151  ls -al
  152  vi .config 
  153  make ARCH=arm CROSS_COMPILE=${CC} menuconfig
  154  make ARCH=arm CROSS_COMPILE=${CC}
  155  ls
  156  cd ..
  157  ls
  158  git clone https://github.com/RobertCNelson/bb-kernel
  159  ls
  160  cd bb-kernel/
  161  ls
  162  git checkout origin/am33x-v4.4 -b tmp
  163  ls
  164  ./build_kernel.sh
  165  sudo apt-get install lzma lzop bison flex
  166  sudo apt-get update
  167  sudo apt-get install lzma lzop bison flex
  168  ./build_kernel.sh
  169  echo $DISK
  170  sudo picocom -b 115200 /dev/ttyUSB0
  171  sudo picocom -b 115200 /dev/ttyACM0 
  172  lsblk
  173  echo $DISK
  174  ./build_kernel.shls
  175  ls
  176  cd deploy/
  177  ls
  178  echo "hello csil" >> test.txt
  179  sudo cp test.txt /var/lib/tftpboot/
  180  ls
  181  sudo cp 4.4.138-bone22.zImage /var/lib/tftpboot/
  182  ls
  183  mkdir testDTB
  184  cp 4.4.138-bone22-dtbs.tar.gz ./testDTB/
  185  cd testDTB/
  186  ls
  187  tar -xvf 4.4.138-bone22-dtbs.tar.gz 
  188  ls
  189  sudo cp am335x-boneblack.dtb /var/lib/tftpboot/
  190  history >> ~/history.txt
  191  cat ~/history.txt 
  192  echo "***********page2************" >> ~/history.txt
  193  sudo sfdisk --version
  194  sudo mkfs.ext4 -V
  195  ls'
  196  ls
  197  cd ..
  198  ls
  199  cd ..
  200  ls
  201  cd KERNEL/
  202  cscope -R
  203  history | cat >> his2_lap
  204  pwd
  205  cd
  206  dmesg
  207  sudo apt-get install picocom 
  208  sudo picocom -b 115200 /dev/ttyACM0
  209  sudo picocom -b 115200 /dev/ttyUSB0
  210  history | cat >> his2_lap
  211  history | cat >> his3_lap
  212  cd
  213  history | cat >> his3_lap
  214  ls
  215  cd BBB/
  216  ls
  217  cd bb-kernel/
  218  ls
  219  whereis loffice 
  220  which loffice 
  221  locate loffice 
  222  cd ~
  223  vi test123.txt
  224  ls
  225  vi test123.txt
  226  ps -ef
  227  history 
  228  history 
  229  tty
  230  history
  231  history | cat >> final_port.txt
  232  ls -l
  233  tty
  234  whatis fdisk
  235  whatis sfdisk
  236  sfdisk --version
  237  whatis mkfs.ext4
  238  man mkfs.ext4
  239  man mkfs.ext4 -V
  240  mkfs.ext4 -V
  241  ifconfig
  242  mkdir practice.c
  243  cd practice.c
  244  vi fib.c
  245  gcc fib.c
  246  vi fib.c
  247  gcc fib.c
  248  ./a.out
  249  vi fib.c
  250  gcc -E fib.c
  251  gcc -S fib.c
  252  ln
  253  lm
  254  ls
  255  gcc -S fib.s
  256  ls
  257  gcc -E fib.s
  258  ls
  259  gcc -c fib.s
  260  gcc -c fib.o
  261  mkdir try.c
  262  cd try.c
  263  vi arg.c
  264  gcc arg.c
  265  vi arg.c
  266  gcc arg.c
  267  vi arg.c
  268  gcc arg.c
  269  ./a.out
  270  vi arg.c
  271  gcc arg.c
  272  vi arg.c
  273  gcc arg.c
  274  ./a.out
  275  vi arg.c
  276  gcc arg.c
  277  vi arg.c
  278  ls
  279  cd BBB/
  280  ls
  281  cd bb-kernel/
  282  ls
  283  cd ..
  284  ls
  285  cd ..
  286  ls
  287  cd CRANES/
  288  ls
  289  lsblk
  290  cd ..
  291  ls
  292  cd BBB/
  293  ls
  294  cd bb-kernel/
  295  ls
  296  cd ..
  297  ls
  298  cd u-boot/
  299  ls
  300  DRIVE=/dev/mmcblk0 
  301  sudo umount /dev/mmcblk0
  302  sudo parted -s $DRIVE mklabel msdos
  303  DRIVE=/dev/mmcblk0 
  304  sudo parted -s $DRIVE mklabel msdos
  305  mount
  306  lsblk
  307  sudo parted -s $DRIVE mklabel msdos
  308  sudo -i
  309  lsblk
  310  DRIVE=/dev/sdb
  311  sudo umount /dev/sdb1
  312  sudo parted -s $DRIVE mklabel msdos
  313  sudo parted -s $DRIVE unit cyl mkpart primary fat32 -- 0 9
  314  sudo parted -s $DRIVE set 1 boot on
  315  sudo parted -s $DRIVE unit cyl mkpart primary ext2 -- 9 -2
  316  sudo mkfs.vfat -F 16 -n boot /dev/sdb1
  317  sync
  318  mount /dev/sdb1 /media/varsity/boot
  319  sudo mount /dev/sdb1 /media/varsity/boot
  320  mkdir /media/varsity/boot
  321  sudo mkdir /media/varsity/boot
  322  sudo mount /dev/sdb1 /media/varsity/boot
  323  ls
  324  cp MLO u-boot.img /media/varsity/boot
  325  sudo cp MLO u-boot.img /media/varsity/boot
  326  sync
  327  dmesg
  328  sudo picocom -b 115200 /dev/ttyUSB0 
  329  cd /boot/
  330  ls
  331  cd grub/
  332  ls
  333  vi grub.cfg 
  334  history
  335  history >> ~/history101.txt
