/home/penguin/Desktop/AKP/LDDKv2.1-Package/Templates/BlockDriver/SAIF/rbd.ko
/home/penguin/Desktop/AKP/LDDKv2.1-Package/Templates/BlockDriver/SAIF/ram_block.o /home/penguin/Desktop/AKP/LDDKv2.1-Package/Templates/BlockDriver/SAIF/ram_device.o /home/penguin/Desktop/AKP/LDDKv2.1-Package/Templates/BlockDriver/SAIF/partition.o

